{
    "swagger": "2.0",
    "info": {
        "contact": {}
    },
    "paths": {
        "/config": {
            "get": {
                "description": "show service config data when the service environment set to debug mode",
                "consumes": [
                    "application/json"
                ],
                "produces": [
                    "application/json"
                ],
                "summary": "get config data on the debug mode",
                "operationId": "get_config",
                "responses": {
                    "200": {
                        "description": "Response data",
                        "schema": {
                            "allOf": [
                                {
                                    "$ref": "#/definitions/http.Response"
                                },
                                {
                                    "type": "object",
                                    "properties": {
                                        "data": {
                                            "$ref": "#/definitions/config.Config"
                                        }
                                    }
                                }
                            ]
                        }
                    },
                    "400": {
                        "description": "Bad Request",
                        "schema": {
                            "$ref": "#/definitions/http.Response"
                        }
                    }
                }
            }
        },
        "/login": {
            "post": {
                "description": "Login",
                "consumes": [
                    "application/json"
                ],
                "produces": [
                    "application/json"
                ],
                "tags": [
                    "Auth"
                ],
                "summary": "Login",
                "operationId": "login",
                "parameters": [
                    {
                        "description": "LoginRequestBody",
                        "name": "login",
                        "in": "body",
                        "required": true,
                        "schema": {
                            "$ref": "#/definitions/user_service.UserAuthorize"
                        }
                    }
                ],
                "responses": {
                    "200": {
                        "description": "GetLoginBody",
                        "schema": {
                            "allOf": [
                                {
                                    "$ref": "#/definitions/http.Response"
                                },
                                {
                                    "type": "object",
                                    "properties": {
                                        "data": {
                                            "$ref": "#/definitions/user_service.User"
                                        }
                                    }
                                }
                            ]
                        }
                    },
                    "400": {
                        "description": "Invalid Argument",
                        "schema": {
                            "allOf": [
                                {
                                    "$ref": "#/definitions/http.Response"
                                },
                                {
                                    "type": "object",
                                    "properties": {
                                        "data": {
                                            "type": "string"
                                        }
                                    }
                                }
                            ]
                        }
                    },
                    "500": {
                        "description": "Server Error",
                        "schema": {
                            "allOf": [
                                {
                                    "$ref": "#/definitions/http.Response"
                                },
                                {
                                    "type": "object",
                                    "properties": {
                                        "data": {
                                            "type": "string"
                                        }
                                    }
                                }
                            ]
                        }
                    }
                }
            }
        },
        "/order": {
            "get": {
                "description": "Get Order s List",
                "consumes": [
                    "application/json"
                ],
                "produces": [
                    "application/json"
                ],
                "tags": [
                    "Order"
                ],
                "summary": "Get Order s List",
                "operationId": "get_order_list",
                "parameters": [
                    {
                        "type": "string",
                        "description": "user_id",
                        "name": "user_id",
                        "in": "query"
                    },
                    {
                        "type": "integer",
                        "description": "offset",
                        "name": "offset",
                        "in": "query"
                    },
                    {
                        "type": "integer",
                        "description": "limit",
                        "name": "limit",
                        "in": "query"
                    },
                    {
                        "type": "string",
                        "description": "search",
                        "name": "search",
                        "in": "query"
                    }
                ],
                "responses": {
                    "200": {
                        "description": "GetAllOrderResponseBody",
                        "schema": {
                            "allOf": [
                                {
                                    "$ref": "#/definitions/http.Response"
                                },
                                {
                                    "type": "object",
                                    "properties": {
                                        "data": {
                                            "$ref": "#/definitions/order_service.GetListOrderResponse"
                                        }
                                    }
                                }
                            ]
                        }
                    },
                    "400": {
                        "description": "Invalid Argument",
                        "schema": {
                            "allOf": [
                                {
                                    "$ref": "#/definitions/http.Response"
                                },
                                {
                                    "type": "object",
                                    "properties": {
                                        "data": {
                                            "type": "string"
                                        }
                                    }
                                }
                            ]
                        }
                    },
                    "500": {
                        "description": "Server Error",
                        "schema": {
                            "allOf": [
                                {
                                    "$ref": "#/definitions/http.Response"
                                },
                                {
                                    "type": "object",
                                    "properties": {
                                        "data": {
                                            "type": "string"
                                        }
                                    }
                                }
                            ]
                        }
                    }
                }
            },
            "post": {
                "description": "Create Order",
                "consumes": [
                    "application/json"
                ],
                "produces": [
                    "application/json"
                ],
                "tags": [
                    "Order"
                ],
                "summary": "Create Order",
                "operationId": "create_order",
                "parameters": [
                    {
                        "description": "CreateOrderRequestBody",
                        "name": "profile",
                        "in": "body",
                        "required": true,
                        "schema": {
                            "$ref": "#/definitions/order_service.CreateOrder"
                        }
                    }
                ],
                "responses": {
                    "200": {
                        "description": "GetOrderBody",
                        "schema": {
                            "allOf": [
                                {
                                    "$ref": "#/definitions/http.Response"
                                },
                                {
                                    "type": "object",
                                    "properties": {
                                        "data": {
                                            "$ref": "#/definitions/order_service.Order"
                                        }
                                    }
                                }
                            ]
                        }
                    },
                    "400": {
                        "description": "Invalid Argument",
                        "schema": {
                            "allOf": [
                                {
                                    "$ref": "#/definitions/http.Response"
                                },
                                {
                                    "type": "object",
                                    "properties": {
                                        "data": {
                                            "type": "string"
                                        }
                                    }
                                }
                            ]
                        }
                    },
                    "500": {
                        "description": "Server Error",
                        "schema": {
                            "allOf": [
                                {
                                    "$ref": "#/definitions/http.Response"
                                },
                                {
                                    "type": "object",
                                    "properties": {
                                        "data": {
                                            "type": "string"
                                        }
                                    }
                                }
                            ]
                        }
                    }
                }
            }
        },
        "/order/{id}": {
            "get": {
                "description": "Get Order  By ID",
                "consumes": [
                    "application/json"
                ],
                "produces": [
                    "application/json"
                ],
                "tags": [
                    "Order"
                ],
                "summary": "Get Order  By ID",
                "operationId": "get_order_by_id",
                "parameters": [
                    {
                        "type": "string",
                        "description": "id",
                        "name": "id",
                        "in": "path",
                        "required": true
                    },
                    {
                        "type": "string",
                        "description": "userid",
                        "name": "userid",
                        "in": "query"
                    }
                ],
                "responses": {
                    "200": {
                        "description": "OrderBody",
                        "schema": {
                            "allOf": [
                                {
                                    "$ref": "#/definitions/http.Response"
                                },
                                {
                                    "type": "object",
                                    "properties": {
                                        "data": {
                                            "$ref": "#/definitions/order_service.Order"
                                        }
                                    }
                                }
                            ]
                        }
                    },
                    "400": {
                        "description": "Invalid Argument",
                        "schema": {
                            "allOf": [
                                {
                                    "$ref": "#/definitions/http.Response"
                                },
                                {
                                    "type": "object",
                                    "properties": {
                                        "data": {
                                            "type": "string"
                                        }
                                    }
                                }
                            ]
                        }
                    },
                    "500": {
                        "description": "Server Error",
                        "schema": {
                            "allOf": [
                                {
                                    "$ref": "#/definitions/http.Response"
                                },
                                {
                                    "type": "object",
                                    "properties": {
                                        "data": {
                                            "type": "string"
                                        }
                                    }
                                }
                            ]
                        }
                    }
                }
            },
            "put": {
                "description": "Update Order",
                "consumes": [
                    "application/json"
                ],
                "produces": [
                    "application/json"
                ],
                "tags": [
                    "Order"
                ],
                "summary": "Update Order",
                "operationId": "update_order",
                "parameters": [
                    {
                        "type": "string",
                        "description": "id",
                        "name": "id",
                        "in": "path",
                        "required": true
                    },
                    {
                        "description": "UpdateOrderRequestBody",
                        "name": "profile",
                        "in": "body",
                        "required": true,
                        "schema": {
                            "$ref": "#/definitions/order_service.UpdateOrder"
                        }
                    }
                ],
                "responses": {
                    "200": {
                        "description": "Order data",
                        "schema": {
                            "allOf": [
                                {
                                    "$ref": "#/definitions/http.Response"
                                },
                                {
                                    "type": "object",
                                    "properties": {
                                        "data": {
                                            "$ref": "#/definitions/order_service.Order"
                                        }
                                    }
                                }
                            ]
                        }
                    },
                    "400": {
                        "description": "Bad Request",
                        "schema": {
                            "allOf": [
                                {
                                    "$ref": "#/definitions/http.Response"
                                },
                                {
                                    "type": "object",
                                    "properties": {
                                        "data": {
                                            "type": "string"
                                        }
                                    }
                                }
                            ]
                        }
                    },
                    "500": {
                        "description": "Server Error",
                        "schema": {
                            "allOf": [
                                {
                                    "$ref": "#/definitions/http.Response"
                                },
                                {
                                    "type": "object",
                                    "properties": {
                                        "data": {
                                            "type": "string"
                                        }
                                    }
                                }
                            ]
                        }
                    }
                }
            },
            "delete": {
                "description": "Delete Order",
                "consumes": [
                    "application/json"
                ],
                "produces": [
                    "application/json"
                ],
                "tags": [
                    "Order"
                ],
                "summary": "Delete Order",
                "operationId": "delete_order",
                "parameters": [
                    {
                        "type": "string",
                        "description": "id",
                        "name": "id",
                        "in": "path",
                        "required": true
                    }
                ],
                "responses": {
                    "200": {
                        "description": "Order data",
                        "schema": {
                            "allOf": [
                                {
                                    "$ref": "#/definitions/http.Response"
                                },
                                {
                                    "type": "object",
                                    "properties": {
                                        "data": {
                                            "type": "object"
                                        }
                                    }
                                }
                            ]
                        }
                    },
                    "400": {
                        "description": "Bad Request",
                        "schema": {
                            "allOf": [
                                {
                                    "$ref": "#/definitions/http.Response"
                                },
                                {
                                    "type": "object",
                                    "properties": {
                                        "data": {
                                            "type": "string"
                                        }
                                    }
                                }
                            ]
                        }
                    },
                    "500": {
                        "description": "Server Error",
                        "schema": {
                            "allOf": [
                                {
                                    "$ref": "#/definitions/http.Response"
                                },
                                {
                                    "type": "object",
                                    "properties": {
                                        "data": {
                                            "type": "string"
                                        }
                                    }
                                }
                            ]
                        }
                    }
                }
            },
            "patch": {
                "description": "Patch Order",
                "consumes": [
                    "application/json"
                ],
                "produces": [
                    "application/json"
                ],
                "tags": [
                    "Order"
                ],
                "summary": "Patch Order",
                "operationId": "patch_order",
                "parameters": [
                    {
                        "type": "string",
                        "description": "id",
                        "name": "id",
                        "in": "path",
                        "required": true
                    },
                    {
                        "description": "UpdatePatchRequestBody",
                        "name": "profile",
                        "in": "body",
                        "required": true,
                        "schema": {
                            "$ref": "#/definitions/models.UpdatePatch"
                        }
                    }
                ],
                "responses": {
                    "200": {
                        "description": "Order data",
                        "schema": {
                            "allOf": [
                                {
                                    "$ref": "#/definitions/http.Response"
                                },
                                {
                                    "type": "object",
                                    "properties": {
                                        "data": {
                                            "$ref": "#/definitions/order_service.Order"
                                        }
                                    }
                                }
                            ]
                        }
                    },
                    "400": {
                        "description": "Bad Request",
                        "schema": {
                            "allOf": [
                                {
                                    "$ref": "#/definitions/http.Response"
                                },
                                {
                                    "type": "object",
                                    "properties": {
                                        "data": {
                                            "type": "string"
                                        }
                                    }
                                }
                            ]
                        }
                    },
                    "500": {
                        "description": "Server Error",
                        "schema": {
                            "allOf": [
                                {
                                    "$ref": "#/definitions/http.Response"
                                },
                                {
                                    "type": "object",
                                    "properties": {
                                        "data": {
                                            "type": "string"
                                        }
                                    }
                                }
                            ]
                        }
                    }
                }
            }
        },
        "/product": {
            "get": {
                "description": "Get Product s List",
                "consumes": [
                    "application/json"
                ],
                "produces": [
                    "application/json"
                ],
                "tags": [
                    "Product"
                ],
                "summary": "Get Product s List",
                "operationId": "get_Product_list",
                "parameters": [
                    {
                        "type": "string",
                        "description": "id",
                        "name": "id",
                        "in": "path",
                        "required": true
                    },
                    {
                        "type": "integer",
                        "description": "offset",
                        "name": "offset",
                        "in": "query"
                    },
                    {
                        "type": "integer",
                        "description": "limit",
                        "name": "limit",
                        "in": "query"
                    },
                    {
                        "type": "string",
                        "description": "search",
                        "name": "search",
                        "in": "query"
                    },
                    {
                        "type": "string",
                        "description": "message_status",
                        "name": "message_status",
                        "in": "query"
                    }
                ],
                "responses": {
                    "200": {
                        "description": "GetAllProductResponseBody",
                        "schema": {
                            "allOf": [
                                {
                                    "$ref": "#/definitions/http.Response"
                                },
                                {
                                    "type": "object",
                                    "properties": {
                                        "data": {
                                            "$ref": "#/definitions/product_service.GetListProductResponse"
                                        }
                                    }
                                }
                            ]
                        }
                    },
                    "400": {
                        "description": "Invalid Argument",
                        "schema": {
                            "allOf": [
                                {
                                    "$ref": "#/definitions/http.Response"
                                },
                                {
                                    "type": "object",
                                    "properties": {
                                        "data": {
                                            "type": "string"
                                        }
                                    }
                                }
                            ]
                        }
                    },
                    "500": {
                        "description": "Server Error",
                        "schema": {
                            "allOf": [
                                {
                                    "$ref": "#/definitions/http.Response"
                                },
                                {
                                    "type": "object",
                                    "properties": {
                                        "data": {
                                            "type": "string"
                                        }
                                    }
                                }
                            ]
                        }
                    }
                }
            },
            "post": {
                "description": "Create Product",
                "consumes": [
                    "application/json"
                ],
                "produces": [
                    "application/json"
                ],
                "tags": [
                    "Product"
                ],
                "summary": "Create Product",
                "operationId": "create_Product",
                "parameters": [
                    {
                        "description": "CreateProductRequestBody",
                        "name": "profile",
                        "in": "body",
                        "required": true,
                        "schema": {
                            "$ref": "#/definitions/product_service.CreateProduct"
                        }
                    }
                ],
                "responses": {
                    "200": {
                        "description": "GetProductBody",
                        "schema": {
                            "allOf": [
                                {
                                    "$ref": "#/definitions/http.Response"
                                },
                                {
                                    "type": "object",
                                    "properties": {
                                        "data": {
                                            "$ref": "#/definitions/product_service.Product"
                                        }
                                    }
                                }
                            ]
                        }
                    },
                    "400": {
                        "description": "Invalid Argument",
                        "schema": {
                            "allOf": [
                                {
                                    "$ref": "#/definitions/http.Response"
                                },
                                {
                                    "type": "object",
                                    "properties": {
                                        "data": {
                                            "type": "string"
                                        }
                                    }
                                }
                            ]
                        }
                    },
                    "500": {
                        "description": "Server Error",
                        "schema": {
                            "allOf": [
                                {
                                    "$ref": "#/definitions/http.Response"
                                },
                                {
                                    "type": "object",
                                    "properties": {
                                        "data": {
                                            "type": "string"
                                        }
                                    }
                                }
                            ]
                        }
                    }
                }
            }
        },
        "/product/{id}": {
            "get": {
                "description": "Get Product  By ID",
                "consumes": [
                    "application/json"
                ],
                "produces": [
                    "application/json"
                ],
                "tags": [
                    "Product"
                ],
                "summary": "Get Product  By ID",
                "operationId": "get_Product_by_id",
                "parameters": [
                    {
                        "type": "string",
                        "description": "id",
                        "name": "id",
                        "in": "path",
                        "required": true
                    }
                ],
                "responses": {
                    "200": {
                        "description": "ProductBody",
                        "schema": {
                            "allOf": [
                                {
                                    "$ref": "#/definitions/http.Response"
                                },
                                {
                                    "type": "object",
                                    "properties": {
                                        "data": {
                                            "$ref": "#/definitions/product_service.Product"
                                        }
                                    }
                                }
                            ]
                        }
                    },
                    "400": {
                        "description": "Invalid Argument",
                        "schema": {
                            "allOf": [
                                {
                                    "$ref": "#/definitions/http.Response"
                                },
                                {
                                    "type": "object",
                                    "properties": {
                                        "data": {
                                            "type": "string"
                                        }
                                    }
                                }
                            ]
                        }
                    },
                    "500": {
                        "description": "Server Error",
                        "schema": {
                            "allOf": [
                                {
                                    "$ref": "#/definitions/http.Response"
                                },
                                {
                                    "type": "object",
                                    "properties": {
                                        "data": {
                                            "type": "string"
                                        }
                                    }
                                }
                            ]
                        }
                    }
                }
            },
            "put": {
                "description": "Update Product",
                "consumes": [
                    "application/json"
                ],
                "produces": [
                    "application/json"
                ],
                "tags": [
                    "Product"
                ],
                "summary": "Update Product",
                "operationId": "update_product",
                "parameters": [
                    {
                        "type": "string",
                        "description": "id",
                        "name": "id",
                        "in": "path",
                        "required": true
                    },
                    {
                        "description": "UpdateProductRequestBody",
                        "name": "profile",
                        "in": "body",
                        "required": true,
                        "schema": {
                            "$ref": "#/definitions/product_service.UpdateProduct"
                        }
                    }
                ],
                "responses": {
                    "200": {
                        "description": "Product data",
                        "schema": {
                            "allOf": [
                                {
                                    "$ref": "#/definitions/http.Response"
                                },
                                {
                                    "type": "object",
                                    "properties": {
                                        "data": {
                                            "$ref": "#/definitions/product_service.Product"
                                        }
                                    }
                                }
                            ]
                        }
                    },
                    "400": {
                        "description": "Bad Request",
                        "schema": {
                            "allOf": [
                                {
                                    "$ref": "#/definitions/http.Response"
                                },
                                {
                                    "type": "object",
                                    "properties": {
                                        "data": {
                                            "type": "string"
                                        }
                                    }
                                }
                            ]
                        }
                    },
                    "500": {
                        "description": "Server Error",
                        "schema": {
                            "allOf": [
                                {
                                    "$ref": "#/definitions/http.Response"
                                },
                                {
                                    "type": "object",
                                    "properties": {
                                        "data": {
                                            "type": "string"
                                        }
                                    }
                                }
                            ]
                        }
                    }
                }
            },
            "delete": {
                "description": "Delete Product",
                "consumes": [
                    "application/json"
                ],
                "produces": [
                    "application/json"
                ],
                "tags": [
                    "Product"
                ],
                "summary": "Delete Product",
                "operationId": "delete_product",
                "parameters": [
                    {
                        "type": "string",
                        "description": "id",
                        "name": "id",
                        "in": "path",
                        "required": true
                    }
                ],
                "responses": {
                    "200": {
                        "description": "Product data",
                        "schema": {
                            "allOf": [
                                {
                                    "$ref": "#/definitions/http.Response"
                                },
                                {
                                    "type": "object",
                                    "properties": {
                                        "data": {
                                            "type": "object"
                                        }
                                    }
                                }
                            ]
                        }
                    },
                    "400": {
                        "description": "Bad Request",
                        "schema": {
                            "allOf": [
                                {
                                    "$ref": "#/definitions/http.Response"
                                },
                                {
                                    "type": "object",
                                    "properties": {
                                        "data": {
                                            "type": "string"
                                        }
                                    }
                                }
                            ]
                        }
                    },
                    "500": {
                        "description": "Server Error",
                        "schema": {
                            "allOf": [
                                {
                                    "$ref": "#/definitions/http.Response"
                                },
                                {
                                    "type": "object",
                                    "properties": {
                                        "data": {
                                            "type": "string"
                                        }
                                    }
                                }
                            ]
                        }
                    }
                }
            },
            "patch": {
                "description": "Patch Product",
                "consumes": [
                    "application/json"
                ],
                "produces": [
                    "application/json"
                ],
                "tags": [
                    "Product"
                ],
                "summary": "Patch Product",
                "operationId": "patch_product",
                "parameters": [
                    {
                        "type": "string",
                        "description": "id",
                        "name": "id",
                        "in": "path",
                        "required": true
                    },
                    {
                        "description": "UpdatePatchRequestBody",
                        "name": "profile",
                        "in": "body",
                        "required": true,
                        "schema": {
                            "$ref": "#/definitions/models.UpdatePatch"
                        }
                    }
                ],
                "responses": {
                    "200": {
                        "description": "Product data",
                        "schema": {
                            "allOf": [
                                {
                                    "$ref": "#/definitions/http.Response"
                                },
                                {
                                    "type": "object",
                                    "properties": {
                                        "data": {
                                            "$ref": "#/definitions/product_service.Product"
                                        }
                                    }
                                }
                            ]
                        }
                    },
                    "400": {
                        "description": "Bad Request",
                        "schema": {
                            "allOf": [
                                {
                                    "$ref": "#/definitions/http.Response"
                                },
                                {
                                    "type": "object",
                                    "properties": {
                                        "data": {
                                            "type": "string"
                                        }
                                    }
                                }
                            ]
                        }
                    },
                    "500": {
                        "description": "Server Error",
                        "schema": {
                            "allOf": [
                                {
                                    "$ref": "#/definitions/http.Response"
                                },
                                {
                                    "type": "object",
                                    "properties": {
                                        "data": {
                                            "type": "string"
                                        }
                                    }
                                }
                            ]
                        }
                    }
                }
            }
        },
        "/sign_up": {
            "post": {
                "description": "SignUp",
                "consumes": [
                    "application/json"
                ],
                "produces": [
                    "application/json"
                ],
                "tags": [
                    "Auth"
                ],
                "summary": "SignUp",
                "operationId": "sign_up",
                "parameters": [
                    {
                        "description": "SignUpRequestBody",
                        "name": "login",
                        "in": "body",
                        "required": true,
                        "schema": {
                            "$ref": "#/definitions/user_service.CreateUser"
                        }
                    }
                ],
                "responses": {
                    "200": {
                        "description": "GetLoginBody",
                        "schema": {
                            "allOf": [
                                {
                                    "$ref": "#/definitions/http.Response"
                                },
                                {
                                    "type": "object",
                                    "properties": {
                                        "data": {
                                            "$ref": "#/definitions/user_service.User"
                                        }
                                    }
                                }
                            ]
                        }
                    },
                    "400": {
                        "description": "Invalid Argument",
                        "schema": {
                            "allOf": [
                                {
                                    "$ref": "#/definitions/http.Response"
                                },
                                {
                                    "type": "object",
                                    "properties": {
                                        "data": {
                                            "type": "string"
                                        }
                                    }
                                }
                            ]
                        }
                    },
                    "500": {
                        "description": "Server Error",
                        "schema": {
                            "allOf": [
                                {
                                    "$ref": "#/definitions/http.Response"
                                },
                                {
                                    "type": "object",
                                    "properties": {
                                        "data": {
                                            "type": "string"
                                        }
                                    }
                                }
                            ]
                        }
                    }
                }
            }
        },
        "/user": {
            "get": {
                "description": "Get User s List",
                "consumes": [
                    "application/json"
                ],
                "produces": [
                    "application/json"
                ],
                "tags": [
                    "User"
                ],
                "summary": "Get User s List",
                "operationId": "get_user_list",
                "parameters": [
                    {
                        "type": "integer",
                        "description": "offset",
                        "name": "offset",
                        "in": "query"
                    },
                    {
                        "type": "integer",
                        "description": "limit",
                        "name": "limit",
                        "in": "query"
                    },
                    {
                        "type": "string",
                        "description": "search",
                        "name": "search",
                        "in": "query"
                    }
                ],
                "responses": {
                    "200": {
                        "description": "GetAllUserResponseBody",
                        "schema": {
                            "allOf": [
                                {
                                    "$ref": "#/definitions/http.Response"
                                },
                                {
                                    "type": "object",
                                    "properties": {
                                        "data": {
                                            "$ref": "#/definitions/user_service.GetListUserResponse"
                                        }
                                    }
                                }
                            ]
                        }
                    },
                    "400": {
                        "description": "Invalid Argument",
                        "schema": {
                            "allOf": [
                                {
                                    "$ref": "#/definitions/http.Response"
                                },
                                {
                                    "type": "object",
                                    "properties": {
                                        "data": {
                                            "type": "string"
                                        }
                                    }
                                }
                            ]
                        }
                    },
                    "500": {
                        "description": "Server Error",
                        "schema": {
                            "allOf": [
                                {
                                    "$ref": "#/definitions/http.Response"
                                },
                                {
                                    "type": "object",
                                    "properties": {
                                        "data": {
                                            "type": "string"
                                        }
                                    }
                                }
                            ]
                        }
                    }
                }
            },
            "post": {
                "description": "Create User",
                "consumes": [
                    "application/json"
                ],
                "produces": [
                    "application/json"
                ],
                "tags": [
                    "User"
                ],
                "summary": "Create User",
                "operationId": "create_user",
                "parameters": [
                    {
                        "description": "CreateUserRequestBody",
                        "name": "profile",
                        "in": "body",
                        "required": true,
                        "schema": {
                            "$ref": "#/definitions/user_service.CreateUser"
                        }
                    }
                ],
                "responses": {
                    "200": {
                        "description": "GetUserBody",
                        "schema": {
                            "allOf": [
                                {
                                    "$ref": "#/definitions/http.Response"
                                },
                                {
                                    "type": "object",
                                    "properties": {
                                        "data": {
                                            "$ref": "#/definitions/user_service.User"
                                        }
                                    }
                                }
                            ]
                        }
                    },
                    "400": {
                        "description": "Invalid Argument",
                        "schema": {
                            "allOf": [
                                {
                                    "$ref": "#/definitions/http.Response"
                                },
                                {
                                    "type": "object",
                                    "properties": {
                                        "data": {
                                            "type": "string"
                                        }
                                    }
                                }
                            ]
                        }
                    },
                    "500": {
                        "description": "Server Error",
                        "schema": {
                            "allOf": [
                                {
                                    "$ref": "#/definitions/http.Response"
                                },
                                {
                                    "type": "object",
                                    "properties": {
                                        "data": {
                                            "type": "string"
                                        }
                                    }
                                }
                            ]
                        }
                    }
                }
            }
        },
        "/user/{id}": {
            "get": {
                "description": "Get User  By ID",
                "consumes": [
                    "application/json"
                ],
                "produces": [
                    "application/json"
                ],
                "tags": [
                    "User"
                ],
                "summary": "Get User  By ID",
                "operationId": "get_user_by_id",
                "parameters": [
                    {
                        "type": "string",
                        "description": "id",
                        "name": "id",
                        "in": "path",
                        "required": true
                    }
                ],
                "responses": {
                    "200": {
                        "description": "UserBody",
                        "schema": {
                            "allOf": [
                                {
                                    "$ref": "#/definitions/http.Response"
                                },
                                {
                                    "type": "object",
                                    "properties": {
                                        "data": {
                                            "$ref": "#/definitions/user_service.User"
                                        }
                                    }
                                }
                            ]
                        }
                    },
                    "400": {
                        "description": "Invalid Argument",
                        "schema": {
                            "allOf": [
                                {
                                    "$ref": "#/definitions/http.Response"
                                },
                                {
                                    "type": "object",
                                    "properties": {
                                        "data": {
                                            "type": "string"
                                        }
                                    }
                                }
                            ]
                        }
                    },
                    "500": {
                        "description": "Server Error",
                        "schema": {
                            "allOf": [
                                {
                                    "$ref": "#/definitions/http.Response"
                                },
                                {
                                    "type": "object",
                                    "properties": {
                                        "data": {
                                            "type": "string"
                                        }
                                    }
                                }
                            ]
                        }
                    }
                }
            },
            "put": {
                "description": "Update User",
                "consumes": [
                    "application/json"
                ],
                "produces": [
                    "application/json"
                ],
                "tags": [
                    "User"
                ],
                "summary": "Update User",
                "operationId": "update_user",
                "parameters": [
                    {
                        "type": "string",
                        "description": "id",
                        "name": "id",
                        "in": "path",
                        "required": true
                    },
                    {
                        "description": "UpdateUserRequestBody",
                        "name": "profile",
                        "in": "body",
                        "required": true,
                        "schema": {
                            "$ref": "#/definitions/user_service.UpdateUser"
                        }
                    }
                ],
                "responses": {
                    "200": {
                        "description": "User data",
                        "schema": {
                            "allOf": [
                                {
                                    "$ref": "#/definitions/http.Response"
                                },
                                {
                                    "type": "object",
                                    "properties": {
                                        "data": {
                                            "$ref": "#/definitions/user_service.User"
                                        }
                                    }
                                }
                            ]
                        }
                    },
                    "400": {
                        "description": "Bad Request",
                        "schema": {
                            "allOf": [
                                {
                                    "$ref": "#/definitions/http.Response"
                                },
                                {
                                    "type": "object",
                                    "properties": {
                                        "data": {
                                            "type": "string"
                                        }
                                    }
                                }
                            ]
                        }
                    },
                    "500": {
                        "description": "Server Error",
                        "schema": {
                            "allOf": [
                                {
                                    "$ref": "#/definitions/http.Response"
                                },
                                {
                                    "type": "object",
                                    "properties": {
                                        "data": {
                                            "type": "string"
                                        }
                                    }
                                }
                            ]
                        }
                    }
                }
            },
            "delete": {
                "description": "Delete User",
                "consumes": [
                    "application/json"
                ],
                "produces": [
                    "application/json"
                ],
                "tags": [
                    "User"
                ],
                "summary": "Delete User",
                "operationId": "delete_user",
                "parameters": [
                    {
                        "type": "string",
                        "description": "id",
                        "name": "id",
                        "in": "path",
                        "required": true
                    }
                ],
                "responses": {
                    "200": {
                        "description": "User data",
                        "schema": {
                            "allOf": [
                                {
                                    "$ref": "#/definitions/http.Response"
                                },
                                {
                                    "type": "object",
                                    "properties": {
                                        "data": {
                                            "type": "object"
                                        }
                                    }
                                }
                            ]
                        }
                    },
                    "400": {
                        "description": "Bad Request",
                        "schema": {
                            "allOf": [
                                {
                                    "$ref": "#/definitions/http.Response"
                                },
                                {
                                    "type": "object",
                                    "properties": {
                                        "data": {
                                            "type": "string"
                                        }
                                    }
                                }
                            ]
                        }
                    },
                    "500": {
                        "description": "Server Error",
                        "schema": {
                            "allOf": [
                                {
                                    "$ref": "#/definitions/http.Response"
                                },
                                {
                                    "type": "object",
                                    "properties": {
                                        "data": {
                                            "type": "string"
                                        }
                                    }
                                }
                            ]
                        }
                    }
                }
            },
            "patch": {
                "description": "Patch User",
                "consumes": [
                    "application/json"
                ],
                "produces": [
                    "application/json"
                ],
                "tags": [
                    "User"
                ],
                "summary": "Patch User",
                "operationId": "patch_user",
                "parameters": [
                    {
                        "type": "string",
                        "description": "id",
                        "name": "id",
                        "in": "path",
                        "required": true
                    },
                    {
                        "description": "UpdatePatchRequestBody",
                        "name": "profile",
                        "in": "body",
                        "required": true,
                        "schema": {
                            "$ref": "#/definitions/models.UpdatePatch"
                        }
                    }
                ],
                "responses": {
                    "200": {
                        "description": "User data",
                        "schema": {
                            "allOf": [
                                {
                                    "$ref": "#/definitions/http.Response"
                                },
                                {
                                    "type": "object",
                                    "properties": {
                                        "data": {
                                            "$ref": "#/definitions/user_service.User"
                                        }
                                    }
                                }
                            ]
                        }
                    },
                    "400": {
                        "description": "Bad Request",
                        "schema": {
                            "allOf": [
                                {
                                    "$ref": "#/definitions/http.Response"
                                },
                                {
                                    "type": "object",
                                    "properties": {
                                        "data": {
                                            "type": "string"
                                        }
                                    }
                                }
                            ]
                        }
                    },
                    "500": {
                        "description": "Server Error",
                        "schema": {
                            "allOf": [
                                {
                                    "$ref": "#/definitions/http.Response"
                                },
                                {
                                    "type": "object",
                                    "properties": {
                                        "data": {
                                            "type": "string"
                                        }
                                    }
                                }
                            ]
                        }
                    }
                }
            }
        },
        "/user_product": {
            "get": {
                "description": "Get Product s List",
                "consumes": [
                    "application/json"
                ],
                "produces": [
                    "application/json"
                ],
                "tags": [
                    "Product"
                ],
                "summary": "Get Product s List",
                "operationId": "get_product_list",
                "parameters": [
                    {
                        "type": "string",
                        "description": "id",
                        "name": "id",
                        "in": "query"
                    },
                    {
                        "type": "integer",
                        "description": "offset",
                        "name": "offset",
                        "in": "query"
                    },
                    {
                        "type": "integer",
                        "description": "limit",
                        "name": "limit",
                        "in": "query"
                    },
                    {
                        "type": "string",
                        "description": "search",
                        "name": "search",
                        "in": "query"
                    },
                    {
                        "type": "string",
                        "description": "message_status",
                        "name": "message_status",
                        "in": "query"
                    }
                ],
                "responses": {
                    "200": {
                        "description": "GetAllProductResponseBody",
                        "schema": {
                            "allOf": [
                                {
                                    "$ref": "#/definitions/http.Response"
                                },
                                {
                                    "type": "object",
                                    "properties": {
                                        "data": {
                                            "$ref": "#/definitions/product_service.GetListProductResponse"
                                        }
                                    }
                                }
                            ]
                        }
                    },
                    "400": {
                        "description": "Invalid Argument",
                        "schema": {
                            "allOf": [
                                {
                                    "$ref": "#/definitions/http.Response"
                                },
                                {
                                    "type": "object",
                                    "properties": {
                                        "data": {
                                            "type": "string"
                                        }
                                    }
                                }
                            ]
                        }
                    },
                    "500": {
                        "description": "Server Error",
                        "schema": {
                            "allOf": [
                                {
                                    "$ref": "#/definitions/http.Response"
                                },
                                {
                                    "type": "object",
                                    "properties": {
                                        "data": {
                                            "type": "string"
                                        }
                                    }
                                }
                            ]
                        }
                    }
                }
            }
        }
    },
    "definitions": {
        "config.Config": {
            "type": "object",
            "properties": {
                "defaultLimit": {
                    "type": "string"
                },
                "defaultOffset": {
                    "type": "string"
                },
                "domain": {
                    "type": "string"
                },
                "environment": {
                    "description": "debug, test, release",
                    "type": "string"
                },
                "httpport": {
                    "type": "string"
                },
                "httpscheme": {
                    "type": "string"
                },
                "orderGRPCPort": {
                    "type": "string"
                },
                "orderServiceHost": {
                    "type": "string"
                },
                "productGRPCPort": {
                    "type": "string"
                },
                "productServiceHost": {
                    "type": "string"
                },
                "serviceHost": {
                    "type": "string"
                },
                "serviceName": {
                    "type": "string"
                },
                "userGRPCPort": {
                    "type": "string"
                },
                "userServiceHost": {
                    "type": "string"
                },
                "version": {
                    "type": "string"
                }
            }
        },
        "http.Response": {
            "type": "object",
            "properties": {
                "data": {},
                "description": {
                    "type": "string"
                },
                "status": {
                    "type": "string"
                }
            }
        },
        "models.UpdatePatch": {
            "type": "object",
            "properties": {
                "data": {
                    "type": "object",
                    "additionalProperties": true
                },
                "id": {
                    "type": "string"
                }
            }
        },
        "order_service.CreateOrder": {
            "type": "object",
            "properties": {
                "order_amount": {
                    "type": "integer"
                },
                "product_id": {
                    "type": "string"
                },
                "user_id": {
                    "type": "string"
                }
            }
        },
        "order_service.GetListOrderResponse": {
            "type": "object",
            "properties": {
                "count": {
                    "type": "integer"
                },
                "orders": {
                    "type": "array",
                    "items": {
                        "$ref": "#/definitions/order_service.Order"
                    }
                }
            }
        },
        "order_service.Order": {
            "type": "object",
            "properties": {
                "created_at": {
                    "type": "string"
                },
                "id": {
                    "type": "string"
                },
                "order_amount": {
                    "type": "integer"
                },
                "ordered_product": {
                    "$ref": "#/definitions/order_service.OrderedProduct"
                },
                "product_id": {
                    "type": "string"
                },
                "updated_at": {
                    "type": "string"
                },
                "user_id": {
                    "type": "string"
                }
            }
        },
        "order_service.OrderCategoryLists": {
            "type": "object",
            "properties": {
                "id": {
                    "type": "string"
                },
                "name": {
                    "type": "string"
                },
                "parent_id": {
                    "type": "string"
                }
            }
        },
        "order_service.OrderProductOwner": {
            "type": "object",
            "properties": {
                "created_at": {
                    "type": "string"
                },
                "owner_id": {
                    "type": "string"
                },
                "owner_name": {
                    "type": "string"
                },
                "owner_phone": {
                    "type": "string"
                },
                "updated_at": {
                    "type": "string"
                }
            }
        },
        "order_service.OrderedProduct": {
            "type": "object",
            "properties": {
                "created_at": {
                    "type": "string"
                },
                "owner": {
                    "$ref": "#/definitions/order_service.OrderProductOwner"
                },
                "product_categories": {
                    "$ref": "#/definitions/order_service.OrderCategoryLists"
                },
                "product_id": {
                    "type": "string"
                },
                "product_name": {
                    "type": "string"
                },
                "product_price": {
                    "type": "number"
                },
                "product_status": {
                    "type": "string"
                },
                "updated_at": {
                    "type": "string"
                }
            }
        },
        "order_service.UpdateOrder": {
            "type": "object",
            "properties": {
                "id": {
                    "type": "string"
                },
                "order_amount": {
                    "type": "integer"
                },
                "product_id": {
                    "type": "string"
                },
                "user_id": {
                    "type": "string"
                }
            }
        },
        "product_service.CategoryLists": {
            "type": "object",
            "properties": {
                "id": {
                    "type": "string"
                },
                "name": {
                    "type": "string"
                },
                "parent_id": {
                    "type": "string"
                }
            }
        },
        "product_service.CreateProduct": {
            "type": "object",
            "properties": {
                "category_id": {
                    "type": "string"
                },
                "name": {
                    "type": "string"
                },
                "owner_id": {
                    "type": "string"
                },
                "price": {
                    "type": "number"
                },
                "product_amount": {
                    "type": "integer"
                },
                "status": {
                    "type": "string"
                }
            }
        },
        "product_service.GetListProductResponse": {
            "type": "object",
            "properties": {
                "count": {
                    "type": "integer"
                },
                "count_ordinary": {
                    "type": "integer"
                },
                "products_ordinary": {
                    "type": "array",
                    "items": {
                        "$ref": "#/definitions/product_service.Product"
                    }
                },
                "products_top": {
                    "type": "array",
                    "items": {
                        "$ref": "#/definitions/product_service.Product"
                    }
                }
            }
        },
        "product_service.Product": {
            "type": "object",
            "properties": {
                "created_at": {
                    "type": "string"
                },
                "id": {
                    "type": "string"
                },
                "name": {
                    "type": "string"
                },
                "owner": {
                    "$ref": "#/definitions/product_service.ProductOwner"
                },
                "owner_id": {
                    "type": "string"
                },
                "price": {
                    "type": "number"
                },
                "product_amount": {
                    "type": "integer"
                },
                "product_categories": {
                    "$ref": "#/definitions/product_service.CategoryLists"
                },
                "status": {
                    "type": "string"
                },
                "updated_at": {
                    "type": "string"
                }
            }
        },
        "product_service.ProductOwner": {
            "type": "object",
            "properties": {
                "created_at": {
                    "type": "string"
                },
                "owner_id": {
                    "type": "string"
                },
                "owner_name": {
                    "type": "string"
                },
                "owner_phone": {
                    "type": "string"
                },
                "updated_at": {
                    "type": "string"
                }
            }
        },
        "product_service.UpdateProduct": {
            "type": "object",
            "properties": {
                "id": {
                    "type": "string"
                },
                "name": {
                    "type": "string"
                },
                "owner_id": {
                    "type": "string"
                },
                "price": {
                    "type": "number"
                },
                "product_amount": {
                    "type": "integer"
                },
                "status": {
                    "type": "string"
                }
            }
        },
        "user_service.CreateUser": {
            "type": "object",
            "properties": {
                "balance": {
                    "type": "number"
                },
                "date_of_birth": {
                    "type": "string"
                },
                "first_name": {
                    "type": "string"
                },
                "last_name": {
                    "type": "string"
                },
                "nickname": {
                    "type": "string"
                },
                "password": {
                    "type": "string"
                },
                "phone_number": {
                    "type": "string"
                },
                "status": {
                    "type": "string"
                }
            }
        },
        "user_service.GetListUserResponse": {
            "type": "object",
            "properties": {
                "count": {
                    "type": "integer"
                },
                "users": {
                    "type": "array",
                    "items": {
                        "$ref": "#/definitions/user_service.User"
                    }
                }
            }
        },
        "user_service.UpdateUser": {
            "type": "object",
            "properties": {
                "balance": {
                    "type": "number"
                },
                "date_of_birth": {
                    "type": "string"
                },
                "first_name": {
                    "type": "string"
                },
                "id": {
                    "type": "string"
                },
                "last_name": {
                    "type": "string"
                },
                "nickname": {
                    "type": "string"
                },
                "password": {
                    "type": "string"
                },
                "phone_number": {
                    "type": "string"
                },
                "status": {
                    "type": "string"
                }
            }
        },
        "user_service.User": {
            "type": "object",
            "properties": {
                "balance": {
                    "type": "number"
                },
                "created_at": {
                    "type": "string"
                },
                "date_of_birth": {
                    "type": "string"
                },
                "first_name": {
                    "type": "string"
                },
                "id": {
                    "type": "string"
                },
                "last_name": {
                    "type": "string"
                },
                "nickname": {
                    "type": "string"
                },
                "password": {
                    "type": "string"
                },
                "phone_number": {
                    "type": "string"
                },
                "status": {
                    "type": "string"
                },
                "updated_at": {
                    "type": "string"
                }
            }
        },
        "user_service.UserAuthorize": {
            "type": "object",
            "properties": {
                "nickname": {
                    "type": "string"
                },
                "password": {
                    "type": "string"
                }
            }
        }
    },
    "securityDefinitions": {
        "ApiKeyAuth": {
            "type": "apiKey",
            "name": "Authorization",
            "in": "header"
        }
    }
}